%YAML 1.1
%TAG !u! tag:unity3d.com,2011:
--- !u!1045 &1
EditorBuildSettings:
  m_ObjectHideFlags: 0
  serializedVersion: 2
  m_Scenes:
  - enabled: 1
    path: Assets/Scenes/MainMenu.unity
    guid: ec6fa181bb92a384aa72a781d373edb3
  - enabled: 1
    path: Assets/Scenes/lvl1.unity
    guid: 2cda990e2423bbf4892e6590ba056729
  - enabled: 1
    path: Assets/Scenes/lvl2.unity
    guid: 7e9185a1eb8309c40bbc6bce16726eb5
  - enabled: 1
    path: Assets/Scenes/lvl3.unity
    guid: 6690929d00d28a34f99c0fc958c07439
  m_configObjects:
    com.unity.adaptiveperformance.simulator.provider_settings: {fileID: 11400000, guid: 288c6bf17a7911f4f8d1b643f172d8d4, type: 2}
